# 3ds Max Wavefront OBJ Exporter v0.97b - (c)2007 guruware
# File Created: 05.03.2013 17:31:18

#
# object Plane001
#

v  -7.9887 0.0000 -62.6375
v  -7.9887 0.0000 18.3723
v  6.5095 0.0000 18.3723
v  6.5095 0.0000 -62.6375
# 4 vertices

g Plane001
f 1 2 3 4 
# 1 polygons

